*** Darwin 8x8 ***
Turn = 0.
  01234567
0 f.......
1 ........
2 ........
3 ...hh...
4 ...hh...
5 ........
6 ........
7 .......f

Turn = 1.
  01234567
0 f.......
1 ........
2 ...h....
3 .....h..
4 ..h.....
5 ....h...
6 ........
7 .......f

Turn = 2.
  01234567
0 f.......
1 ...h....
2 ........
3 ......h.
4 .h......
5 ........
6 ....h...
7 .......f

Turn = 3.
  01234567
0 f..h....
1 ........
2 ........
3 .......h
4 h.......
5 ........
6 ........
7 ....h..f

Turn = 4.
  01234567
0 f..h....
1 ........
2 ........
3 .......h
4 h.......
5 ........
6 ........
7 ....h..f

Turn = 5.
  01234567
0 f..h....
1 ........
2 ........
3 .......h
4 h.......
5 ........
6 ........
7 ....h..f

*** Darwin 7x9 ***
Turn = 0.
  012345678
0 t........
1 .........
2 .........
3 ..h......
4 .........
5 ....r....
6 ........t

Turn = 1.
  012345678
0 t........
1 .........
2 .........
3 ...h.....
4 ....r....
5 .........
6 ........t

Turn = 2.
  012345678
0 t........
1 .........
2 .........
3 ....r....
4 ....r....
5 .........
6 ........t

Turn = 3.
  012345678
0 t........
1 .........
2 .........
3 ....rr...
4 .........
5 .........
6 ........t

Turn = 4.
  012345678
0 t........
1 .........
2 ....r....
3 ......r..
4 .........
5 .........
6 ........t

Turn = 5.
  012345678
0 t........
1 ....r....
2 .........
3 .......r.
4 .........
5 .........
6 ........t

*** Darwin 8x8 ***
Turn = 0.
  01234567
0 fff.fff.
1 f.......
2 f.......
3 f.......
4 f.......
5 ........
6 ........
7 ........

Turn = 2.
  01234567
0 fff.fff.
1 f.......
2 f.......
3 f.......
4 f.......
5 ........
6 ........
7 ........

Turn = 4.
  01234567
0 fff.fff.
1 f.......
2 f.......
3 f.......
4 f.......
5 ........
6 ........
7 ........

Turn = 6.
  01234567
0 fff.fff.
1 f.......
2 f.......
3 f.......
4 f.......
5 ........
6 ........
7 ........

*** Darwin 1x1 ***
Turn = 0.
  0
0 f

Turn = 1.
  0
0 f

*** Darwin 1x2 ***
Turn = 0.
  01
0 rf

Turn = 1.
  01
0 rr

*** Darwin 1x5 ***
Turn = 0.
  01234
0 h...h

Turn = 2.
  01234
0 ..hh.

*** Darwin 8x8 ***
Turn = 0.
  01234567
0 .......h
1 h.......
2 h......h
3 h......h
4 h......h
5 h......h
6 ........
7 ........

Turn = 2.
  01234567
0 .....h..
1 ..h.....
2 ..h..h..
3 ..h..h..
4 ..h..h..
5 ..h..h..
6 ........
7 ........

Turn = 4.
  01234567
0 ...h....
1 ....h...
2 ...hh...
3 ...hh...
4 ...hh...
5 ...hh...
6 ........
7 ........

Turn = 6.
  01234567
0 .h......
1 ......h.
2 ...hh...
3 ...hh...
4 ...hh...
5 ...hh...
6 ........
7 ........

*** Darwin 1x2 ***
Turn = 0.
  01
0 tf

Turn = 1.
  01
0 tt

*** Darwin 2x2 ***
Turn = 0.
  01
0 rf
1 ff

Turn = 1.
  01
0 rr
1 rr

*** Darwin 6x5 ***
Turn = 0.
  01234
0 .....
1 h....
2 h....
3 h....
4 .....
5 .....

Turn = 1.
  01234
0 .....
1 h....
2 h....
3 h....
4 .....
5 .....

*** Darwin 3x3 ***
Turn = 0.
  012
0 h.t
1 h.t
2 h.t

Turn = 1.
  012
0 .ht
1 .ht
2 .ht

Turn = 2.
  012
0 .tt
1 .tt
2 .tt
