*** Darwin 18x18 ***
Turn = 0.
  012345678901234567
0 ....h.....r.......
1 .f................
2 ..................
3 ..f...........f...
4 ............t.....
5 h........r.....r.t
6 ..................
7 ......f....r......
8 ..t...............
9 ..................
0 t.....t...........
1 ..................
2 ..................
3 .h...t............
4 ..................
5 r.......r.........
6 ....t.....h.......
7 ..................

Turn = 1.
  012345678901234567
0 ...h.......r......
1 .f................
2 ..................
3 ..f...........f...
4 ............t..r..
5 .h........r......t
6 ..................
7 ......f...........
8 ..t........r......
9 ..................
0 t.....t...........
1 ..................
2 .h................
3 .....t............
4 ..................
5 .........r........
6 r...t....h........
7 ..................

Turn = 2.
  012345678901234567
0 ..h.........r.....
1 .f................
2 ..................
3 ..f...........fr..
4 ............t.....
5 ..h........r.....t
6 ..................
7 ......f...........
8 ..t...............
9 ...........r......
0 t.....t...........
1 .h................
2 ..................
3 .....t............
4 ..................
5 ..........r.......
6 ....t...h.........
7 r.................

Turn = 3.
  012345678901234567
0 .h...........r....
1 .f................
2 ...............r..
3 ..f...........f...
4 ............t.....
5 ...h........r....t
6 ..................
7 ......f...........
8 ..t...............
9 ..................
0 th....t....r......
1 ..................
2 ..................
3 .....t............
4 ..................
5 ...........r......
6 ....t..h..........
7 r.................

Turn = 4.
  012345678901234567
0 h.............r...
1 .f.............r..
2 ..................
3 ..f...........f...
4 ............t.....
5 ....h........r...t
6 ..................
7 ......f...........
8 ..t...............
9 .h................
0 t.....t...........
1 ...........r......
2 ..................
3 .....t............
4 ..................
5 ............r.....
6 ....t.h...........
7 r.................

Turn = 5.
  012345678901234567
0 h..............r..
1 .f.............r..
2 ..................
3 ..f...........f...
4 ............t.....
5 .....h........r..t
6 ..................
7 ......f...........
8 .ht...............
9 ..................
0 t.....t...........
1 ..................
2 ...........r......
3 .....t............
4 ..................
5 .............r....
6 ....th............
7 r.................

Turn = 6.
  012345678901234567
0 h...............r.
1 .f..............r.
2 ..................
3 ..f...........f...
4 ............t.....
5 ......h........r.t
6 ..................
7 .h....f...........
8 ..t...............
9 ..................
0 t.....t...........
1 ..................
2 ..................
3 .....t.....r......
4 ..................
5 ..............r...
6 ....th............
7 r.................

*** Darwin 15x16 ***
Turn = 0.
  0123456789012345
0 ..h......h.hh.r.
1 .t..ht...rr..f..
2 ..h.f..r..f.t.rh
3 .h..rf.....f.hrf
4 r...t.rf..fr..t.
5 rh..h...frhhr..h
6 ff..t.f.ff.h.f..
7 h.rh....hrr.fhh.
8 ...t...r..f.tt..
9 .....trr....f..h
0 r.hhr.....h.....
1 f.r...rt.f...r.h
2 ..fh...r..f...h.
3 .h.....r..hhrr.r
4 ......rf...f.r..

Turn = 1.
  0123456789012345
0 .........hrh.r..
1 .th.ht...r..tf..
2 ..h.f...r.f.t.rr
3 ..hr.f.....f.rrf
4 r...t.r.rrrr..t.
5 rh..t...f..h.r.h
6 rf..t.f.frh.hfh.
7 r.rr...h.rr.tt..
8 ....r.r...f.tt..
9 ....rrrr....f...
0 r.h......h.....h
1 f.rh.r.t.f.....h
2 .hrr....r.f.rr.h
3 ......rr..h..rrr
4 ......r...hf....

Turn = 2.
  0123456789012345
0 .........hrhr...
1 .th.ht......tf.r
2 ..h.f...rrf.t.r.
3 r.rr.f...rrf.rrf
4 ....t..rr.r...t.
5 rh..t...f.....rh
6 rf..t.f.frrhhfh.
7 .rr...h..rr.tt..
8 ...rrrrr..f.tt..
9 .....rr.....f...
0 r.h.....h......h
1 rhrhr..t.f..r..h
2 ..r....r.rf..r.h
3 ...r.r...h...rr.
4 .......r..hf...r

Turn = 3.
  0123456789012345
0 .........hrrr..r
1 .tt.tt..r...tt..
2 r.t.f....rr.trr.
3 ..rr.f...rrf..rf
4 ....t..rrr....t.
5 rr..t...r.....rr
6 rrr.t.f.frr.hfh.
7 .r..rhrrr.rhtt..
8 .....rr...f.tt..
9 ...r.r......f...
0 rhh....h....r..h
1 r.rr...r.fr....h
2 ..rr...r.r....rh
3 ....r...h....r..
4 ...r....r.hf..rr

Turn = 4.
  0123456789012345
0 ........rhrrr..r
1 rtt.tt....r.tr..
2 ..rrf....rr.tr.r
3 ..r..f.r.r.f..tr
4 ....t...rr....tr
5 rrr.t....r....r.
6 .r..t.rrfr..hth.
7 rr..trrr.rr.tt..
8 .....rr...frtt..
9 .h..r.......r...
0 r.hr..h...r.r..h
1 r.rr...r.f.....h
2 ..r....r..r..rrr
3 ...rr..h........
4 ...r.....rhf..rr

Turn = 5.
  0123456789012345
0 r.......rhrr.rr.
1 .ttrtt...rr.tt..
2 ..r.f..r.rr.tt.t
3 ..r..f...r.f..tr
4 r.r.t..r......rr
5 r...t..r..r...r.
6 ..r.t.r.rr..tth.
7 r...rrrr...rtt..
8 rh...r.r.rf.tt..
9 r..r......rrt...
0 r.rr.h......t..h
1 ..rr....rf...r.h
2 ......r....r..r.
3 ..rr..h........r
4 ...rr....rrf.r.r

Turn = 6.
  0123456789012345
0 r..r....rrrr.rr.
1 .tt.tt.r.rr.tt..
2 ...rf....r.rtt.t
3 rrr..f...r.f..tr
4 ....t.rr.....rrr
5 r...t......r..h.
6 ...rtr..rr..rt..
7 rh..rr.r...rtt..
8 r...rr..r.r.tt..
9 r.r......rr.t...
0 r.r.rh.....ttr.h
1 ..r.r...r.....rh
2 .....r...r..r...
3 ...rrh.....r...r
4 ..r.r....rr.r.r.

Turn = 7.
  0123456789012345
0 .r.r...rrrr..rr.
1 .tt.rt...r.rrr..
2 r.rrr....rrrrr.t
3 r....f.rr..f..rr
4 ....tr......r.rr
5 ....r...rr..r.h.
6 rh.rrr......rt..
7 r..rrr..r..rtt..
8 r........rr.tt..
9 .rr.r.....r.tr..
0 rr..rr...r.tt.rh
1 .r...r...r.....h
2 ...rr......r.r..
3 ....rr...r....r.
4 ..rr.....r.rrr..

*** Darwin 10x14 ***
Turn = 0.
  01234567890123
0 .......r.hf.h.
1 fhf..f.hf.....
2 r.............
3 ......t.......
4 .r.t.t....r...
5 ..h.t.........
6 .f....h....r..
7 ....f.......t.
8 ..............
9 rtf.rt.......t

Turn = 1.
  01234567890123
0 .......r.hf...
1 fhf..f.rf...h.
2 ..............
3 rr....t...r...
4 ..ht.t........
5 ....t.h.......
6 .f............
7 ....f......rt.
8 ....r.........
9 rtt..t.......t

Turn = 2.
  01234567890123
0 .......rrhf...
1 fhf..f.r......
2 .r........r.h.
3 ..h...t.......
4 r..t.th.......
5 ....t.........
6 .f............
7 ....r.......t.
8 ..r.r......r..
9 rr...t.......t

Turn = 3.
  01234567890123
0 ......r.rhf...
1 frf..f..r.r...
2 .rh...........
3 ......t.....h.
4 ...t.th.......
5 r...t.........
6 .f............
7 ..rrr.......t.
8 ..............
9 r.r..t.....r.t

Turn = 4.
  01234567890123
0 .....r..rrr...
1 rrf..f...rr...
2 .rh...........
3 ......t.......
4 ...t.tt.....h.
5 ....t.........
6 rfr.r.........
7 ..r.........t.
8 ..............
9 r..r.t.....r.t

Turn = 5.
  01234567890123
0 ....r...rrr...
1 rrf..f...rr...
2 r.h...........
3 ......t.......
4 ...t.tt.......
5 ..r.r.......h.
6 .f..r.........
7 rr..........t.
8 ..............
9 .r..rt....r..t

*** Darwin 15x11 ***
Turn = 0.
  01234567890
0 ......t....
1 t......f.h.
2 ......th.r.
3 .hr...f....
4 .r....t.f..
5 .rttr......
6 ...tt.....f
7 fr.....t..f
8 ....f......
9 t.t...h....
0 .rf..r.h..t
1 ......th..t
2 t...h.frt..
3 ..h...f....
4 ......t...f

Turn = 1.
  01234567890
0 ......t..h.
1 t......f...
2 ..r...th...
3 h.....t..r.
4 r...r.t.f..
5 .rtt.......
6 .r.tt.....f
7 f......t..f
8 ....f......
9 t.t..h.....
0 r.t....h..t
1 .....tth..t
2 t.....rtt..
3 ...hh.f....
4 ......t...f

Turn = 2.
  01234567890
0 ......t..h.
1 t.r....f...
2 ......th...
3 h...r.t....
4 r.r...t.fr.
5 .r.t.......
6 .r.tt.....f
7 f......t..f
8 ....f......
9 t.t.h......
0 r.t....h..t
1 .....tth..t
2 t....r.tt..
3 ...h..t....
4 ....h.t...f

Turn = 3.
  01234567890
0 ..r...t..h.
1 t......f...
2 ....r.tt...
3 h.r...t....
4 ......t.f..
5 r.rt.....r.
6 ..ttt.....f
7 f......t..f
8 ....f......
9 t.th.......
0 t.t....h..t
1 .....tth..t
2 t...r..tt..
3 ....h.t....
4 ....h.t...f

Turn = 4.
  01234567890
0 ..r...t..h.
1 t...r..f...
2 ..r...tt...
3 h.....t....
4 ......t.f..
5 ..r.r......
6 r.ttt....rf
7 f......t..f
8 ....f......
9 t.th.......
0 t.t....h..t
1 .....ttt..t
2 t..r...tt..
3 .....ht....
4 ....h.t...f

Turn = 5.
  01234567890
0 ...rr.t..h.
1 t.r....f...
2 ......tt...
3 h.....t....
4 ......t.f..
5 ...r.r.....
6 r.ttt.....f
7 .......t.rf
8 r...f......
9 t.th.......
0 t.t....h..t
1 .....ttt..t
2 t.r....tt..
3 .....ht....
4 ....h.t...f

Turn = 6.
  01234567890
0 ..rrr.t..h.
1 t......t...
2 ......tt...
3 h.....t....
4 ......t.f..
5 ....t.r....
6 ..ttt.....f
7 r......t..f
8 r...f....r.
9 r.th.......
0 t.t....h..t
1 .....ttt..t
2 tr.....tt..
3 .....tt....
4 ....h.t...f

Turn = 7.
  01234567890
0 ..rr..t..h.
1 t..r...t...
2 ......tt...
3 h.....t....
4 ......t.f..
5 ....t..r...
6 ..ttt.....f
7 r......t..f
8 r...f......
9 t.tt.....r.
0 t.t....t..t
1 .....ttt..t
2 rr.....tt..
3 .....tt....
4 ....h.t...f

Turn = 8.
  01234567890
0 ..rr..t..h.
1 t......t...
2 ...r..tt...
3 h.....t....
4 ......t.f..
5 ....t...r..
6 ..ttt.....f
7 r......t..f
8 .r..f......
9 t.tt.......
0 t.t....t.rt
1 .....ttt..t
2 rr.....tt..
3 .....tt....
4 ....h.t...f

Turn = 9.
  01234567890
0 ..rr..t..h.
1 t......t...
2 ......tt...
3 h..r..t....
4 ......t.f..
5 ....t....r.
6 r.ttt.....f
7 .......t..f
8 ..t.f......
9 t.tt.......
0 t.t....t..t
1 r....ttt.rt
2 .......tt..
3 .r...tt....
4 ....h.t...f

Turn = 10.
  01234567890
0 .rr...t..h.
1 t......t...
2 ......tt...
3 h.....t....
4 ...r..t.f..
5 r...t.....r
6 ..ttt.....f
7 .......t..f
8 ..t.f......
9 t.tt.......
0 t.t....t..t
1 t....ttt..t
2 .......ttr.
3 .....tt....
4 .r..h.t...f

*** Darwin 6x12 ***
Turn = 0.
  012345678901
0 ....ft......
1 .........f..
2 ............
3 ...f........
4 ....r......f
5 ...t........

Turn = 1.
  012345678901
0 ....ft......
1 .........f..
2 ............
3 ...fr.......
4 ...........f
5 ...t........

Turn = 2.
  012345678901
0 ....ft......
1 .........f..
2 ....r.......
3 ...f........
4 ...........f
5 ...t........

Turn = 3.
  012345678901
0 ....ft......
1 ....r....f..
2 ............
3 ...f........
4 ...........f
5 ...t........

Turn = 4.
  012345678901
0 ....rt......
1 ....r....f..
2 ............
3 ...f........
4 ...........f
5 ...t........

Turn = 5.
  012345678901
0 ....rr......
1 ....r....f..
2 ............
3 ...f........
4 ...........f
5 ...t........

*** Darwin 11x19 ***
Turn = 0.
  0123456789012345678
0 t..r........h...h..
1 .f..t..........f.r.
2 .........h.........
3 ...hht..f..........
4 t...h.r.........f..
5 f....tr.....t......
6 ...............r...
7 ...................
8 ...........t.......
9 ........h.......h..
0 ..ht.........rr...r

Turn = 1.
  0123456789012345678
0 t...r.......h..h...
1 .f..t..........f...
2 ...h.............r.
3 ....ht..fh.........
4 t....rr.........f..
5 t....t......t..r...
6 ......r............
7 ...................
8 ...........t....h..
9 .......h...........
0 ..ht........rr....r

Turn = 2.
  0123456789012345678
0 t....r......h.h....
1 .f.ht..........f...
2 ...................
3 ....ht..f........r.
4 t....rr..h.....rf..
5 t....t......t......
6 ...................
7 ......r.........h..
8 ...........t.......
9 ......h............
0 ..tt.......rr....r.

Turn = 3.
  0123456789012345678
0 t..h..r.....hh.....
1 .f..t..........f...
2 ...................
3 ....hrr.f......r...
4 t....r..........fr.
5 t....t...h..t......
6 ................h..
7 ...................
8 ......r....t.......
9 .....h.............
0 ..tt......rr....r..

Turn = 4.
  0123456789012345678
0 t..h...r....hh.....
1 .f..t..........f...
2 ......r........r...
3 ....rr..f..........
4 t....t..........f..
5 t....t......t...hr.
6 .........h.........
7 ...................
8 ...........t.......
9 ....h.r............
0 ..tt.....rr....r...

Turn = 5.
  0123456789012345678
0 t..h....r...hh.....
1 .f..t.r........r...
2 ...............r...
3 ....rr..f..........
4 t....t..........f..
5 t....t......t...h..
6 .................r.
7 .........h.........
8 ...........t.......
9 ...h...............
0 ..tt..r.rr....r....

Turn = 6.
  0123456789012345678
0 t..h..r..r..hh.r...
1 .f..t..........r...
2 .....r.............
3 ........f..........
4 t...rt..........f..
5 t....t......t...h..
6 ...................
7 .................r.
8 .........h.t.......
9 ..h................
0 ..tt..rrr....r.....

Turn = 7.
  0123456789012345678
0 t..h..r...r.hh.r...
1 .f..tr.........r...
2 ...................
3 ........f..........
4 t....t..........f..
5 t...rt......t...h..
6 ...................
7 ...................
8 ...........t.....r.
9 .h.......h.........
0 ..tt..rrr...r......

*** Darwin 14x18 ***
Turn = 0.
  012345678901234567
0 rrt..........h..r.
1 .....f...hf....t..
2 .h..rr.h....r.h..r
3 .t..rt.rff.h.rrt.f
4 ft....hr....f.r...
5 ft...tth......r.h.
6 .........r..r.r.r.
7 ..tr.r...........r
8 ....t..h....h.....
9 ..f...r..hr....t.t
0 t........f.t..tt..
1 .........ft..h...f
2 ..f.f.........rt.t
3 ...tf.r....hh..rr.

Turn = 1.
  012345678901234567
0 rr..............r.
1 ..r..r.h..f..hht..
2 h...rt...h.r....r.
3 .t..rt.rff....r.rf
4 ft...h..r..hfrr...
5 tt...tt.hr....r.h.
6 ...........r..r..r
7 ..rr.............r
8 ....tr..h.........
9 ..f......rr.h..t.t
0 t.....r..f.t..tt..
1 .........tt...h..f
2 ..f.f........r.trt
3 ...tf.r....hh..r..

Turn = 2.
  012345678901234567
0 r.r....h......hr..
1 ....r.....f....t..
2 h.rr.r...hr..h.r.r
3 .t..rrr.ff.....rr.
4 tt..h....r..f..r..
5 tt...tt.hr.h.r.r..
6 ..........r..r..hr
7 ..rr.............r
8 ....t....h........
9 ..f..r...rr....t.t
0 t........r.tt.tt..
1 ......r..rr....hrf
2 ..f.f.......r..t.t
3 ...tfr.....hh..t..

Turn = 3.
  012345678901234567
0 ...r...h......rr..
1 r..r......f....t.r
2 h.r.rr...rr....t..
3 .tt.rr..ff...h.r.r
4 tt.h......r.f...r.
5 tt...tt.rr...r..r.
6 .........r.hr....r
7 ................hr
8 ..rrt.....h.......
9 ..f......r.....t.t
0 t....r...rrtt.tt..
1 .........r.....ttt
2 ..f.t.r...rr...t.t
3 ...trr.....hh..t..

Turn = 4.
  012345678901234567
0 ....r..h......rr.r
1 r.r..r....f....t..
2 rr.rr....rr....t..
3 .tt.r...fr.....t.r
4 tth........rfh...r
5 tt...tt.rr....r..r
6 ........r..r....r.
7 ...........h.....r
8 ..r.t......h....h.
9 ..rr......r....t.t
0 t........r.tt.tt..
1 .....r...rr....ttt
2 ..f.t.....r....t.t
3 ...trrr...rhh..t..

Turn = 5.
  012345678901234567
0 .....r.h......rr.r
1 rr..rr....r....t..
2 rtr......rr....t.r
3 .ttr....rr.....t..
4 tth.....rr.rr....r
5 tt...tt......h.r.r
6 .......r..r....r..
7 ...........h......
8 ..r.t.......h....r
9 .........r.r...tht
0 t.rr.......tt.tt..
1 .........rr....ttt
2 ..f.tr...r.....t.t
3 ...trrr...rhh..t..

Turn = 6.
  012345678901234567
0 ....r.rh......r.rr
1 rt....r...rr...t.r
2 rtt.....rr.....t..
3 .trr....rr.....t..
4 ttt.....r..r.....r
5 tt...tt.....r...rr
6 ......r..r...hr...
7 ..................
8 .r..t....r.h.h...r
9 ............r..ttr
0 t........r.tt.tt..
1 ..rr.....r.....ttt
2 ..f.tr..r......t.t
3 ...trr.r..rrh..t..

Turn = 7.
  012345678901234567
0 ....r.rr..r....rrr
1 rt.....rr...r..t.r
2 rtr......r.....t..
3 .trr...r.r.r...t..
4 ttt......r......r.
5 tt...tt.........rr
6 ......t.r...rr....
7 .........r...h....
8 r...t.........h..r
9 .........r.h.r.ttt
0 t..........tt.tt..
1 ..r.....r......ttt
2 ...rt.rr.......t.t
3 ..rttt..r.rrh..t..

Turn = 8.
  012345678901234567
0 .....rr.r.r....rrr
1 r.r....rr....r.t.r
2 ttr.....r..r...t..
3 .tr...r.r......t..
4 tttt......r....r..
5 tt...tt...........
6 ......tr.r..r...rr
7 ............r.....
8 r...t....r...h.tr.
9 ...........t..rttt
0 t..........tt.tt..
1 .......r.......ttt
2 ..rrt.rr..r....t.t
3 ..rrtt...r.rh..t..

*** Darwin 8x7 ***
Turn = 0.
  0123456
0 ..f.rf.
1 ff..f..
2 .r.fr.f
3 .......
4 ...f...
5 ....t.r
6 ......h
7 .f..r..

Turn = 1.
  0123456
0 ..f.r..
1 ff..fr.
2 r..rr.f
3 .......
4 ...f...
5 ....tr.
6 .....h.
7 .f...r.

Turn = 2.
  0123456
0 ..f..r.
1 ff..f..
2 r..r.rf
3 ...r...
4 ...f...
5 ....rr.
6 ....h..
7 .f....r

Turn = 3.
  0123456
0 ..f...r
1 rf..f..
2 r.r...f
3 ...r.r.
4 ..r....
5 ....rr.
6 ...r...
7 .f....r

Turn = 4.
  0123456
0 ..f...r
1 rf..f..
2 rr....f
3 .......
4 .r.r.r.
5 .......
6 ..r.rr.
7 .f....r

Turn = 5.
  0123456
0 ..f....
1 rf..f.r
2 rr....f
3 .......
4 r......
5 ...r.r.
6 .r.....
7 .f..rrr

Turn = 6.
  0123456
0 ..f....
1 rr..f.r
2 .r....r
3 r......
4 r......
5 .......
6 r..r.rr
7 .f..rr.

Turn = 7.
  0123456
0 ..f....
1 rr..f.r
2 .r....r
3 r......
4 r......
5 ......r
6 r....r.
7 .f.rr.r

Turn = 8.
  0123456
0 ..f....
1 .r..f.r
2 rr....r
3 .r.....
4 .r....r
5 r......
6 ......r
7 .f.rr.r

Turn = 9.
  0123456
0 ..f....
1 .rr.f.r
2 .......
3 r.r...r
4 r.r...r
5 .......
6 ......r
7 .fr..rr

Turn = 10.
  0123456
0 .rf....
1 ...rf.r
2 .......
3 r..r..r
4 r..r..r
5 .......
6 ......r
7 .rr..rr

*** Darwin 16x14 ***
Turn = 0.
  01234567890123
0 ..rhr......h..
1 f.......hf...r
2 ..t...........
3 ......t......h
4 f.......f..f..
5 .......f......
6 .tfh.rf......f
7 f....h...f...f
8 ...t...fr.....
9 h.....h..h.t..
0 ..f...h.r..r.r
1 .h...........r
2 ...hh.t......f
3 ...r....t.f..t
4 .f.....t......
5 .f.rhr.f..f...

Turn = 1.
  01234567890123
0 .r.h.......h..
1 f...r...hf..r.
2 ..t...........
3 ......t.......
4 f.......f..f.h
5 .....r.f......
6 .tf...f......f
7 f..hh....f...f
8 ...t...f.r....
9 .....h.....t..
0 h.f..h..rr..r.
1 h...h......rr.
2 ...r..t......f
3 ...r....t.f..t
4 .f.r...t......
5 .f.hr..f..f...

Turn = 2.
  01234567890123
0 r..h.......h..
1 f.......hf.r..
2 ..t.r.........
3 ......t.......
4 f....r..f..f..
5 .......f.....h
6 .tf...f......f
7 f..hh....f...f
8 ...t...f..r...
9 ....h......t..
0 h.f.h...r..r..
1 h...h....r.r..
2 ...r..t....r.t
3 ...r....t.f..t
4 .f.r...t......
5 .fhr...f..f...

Turn = 3.
  01234567890123
0 r..h.......h..
1 f.......hfr...
2 ..t...........
3 ....rrt.......
4 f.......f..f..
5 .......f.....h
6 .tt...f......f
7 f..hh....f...f
8 ...t...f...r..
9 ...h.......t..
0 h.fhh.....r...
1 h.......r.r...
2 ....r.t..r...t
3 ....r...t.fr.t
4 .f..r..t......
5 .frr...f..f...

Turn = 4.
  01234567890123
0 r..h.......h..
1 f.......hrr...
2 ..t..r........
3 ......t.......
4 f...r...f..f..
5 .......f.....h
6 .tt...f......f
7 f..th....f...f
8 ...t...f....r.
9 ..h.h......t..
0 h.fh.....r....
1 h........r....
2 .....rt.r....t
3 .....r..ttf..t
4 .f...r.t...r..
5 .rrr...t..f...

Turn = 5.
  01234567890123
0 .r.h.......h..
1 f....r..hr....
2 ..t......r....
3 ......t.......
4 f.......f..f..
5 ....r..f.....h
6 .tt...f......f
7 f..th....f...f
8 ...th..f.....r
9 .h.........t..
0 h.fh....r.....
1 h.......r.....
2 .....rr.r....t
3 ......r.r.f..t
4 .f....rt.r....
5 .rrr...t..fr..

Turn = 6.
  01234567890123
0 ..rh.r.....h..
1 f.......rr....
2 ..t...........
3 ......t..r....
4 f.......f..f..
5 .......f.....h
6 .tt.r.f......f
7 f..tt....f...f
8 ...th..f.....r
9 h..........t..
0 h.fh...r......
1 h......r......
2 .....rr.r....t
3 .......r.rf..t
4 .fr...r.r.....
5 r...r..t.rfr..

*** Darwin 5x18 ***
Turn = 0.
  012345678901234567
0 ........f........r
1 ...h...h....t.....
2 ..................
3 ..................
4 ..................

Turn = 1.
  012345678901234567
0 ...h...hf........r
1 ............t.....
2 ..................
3 ..................
4 ..................

Turn = 2.
  012345678901234567
0 ...h...hf.........
1 ............t....r
2 ..................
3 ..................
4 ..................

Turn = 3.
  012345678901234567
0 ...h...hf.........
1 ............t.....
2 .................r
3 ..................
4 ..................

Turn = 4.
  012345678901234567
0 ...h...hf.........
1 ............t.....
2 ..................
3 .................r
4 ..................

Turn = 5.
  012345678901234567
0 ...h...hf.........
1 ............t.....
2 ..................
3 ..................
4 .................r

Turn = 6.
  012345678901234567
0 ...h...hf.........
1 ............t.....
2 ..................
3 ..................
4 .................r
