*** Darwin 11x5 ***
Turn = 0.
  01234
0 .r...
1 ....t
2 .....
3 h....
4 ...rr
5 .....
6 .....
7 .....
8 .....
9 .....
0 .....

Turn = 1.
  01234
0 r....
1 ....t
2 h....
3 ...rr
4 .....
5 .....
6 .....
7 .....
8 .....
9 .....
0 .....

Turn = 2.
  01234
0 r....
1 h...t
2 ...rr
3 .....
4 .....
5 .....
6 .....
7 .....
8 .....
9 .....
0 .....

Turn = 3.
  01234
0 r....
1 h..rr
2 ....r
3 .....
4 .....
5 .....
6 .....
7 .....
8 .....
9 .....
0 .....

Turn = 4.
  01234
0 r..r.
1 h...r
2 ....r
3 .....
4 .....
5 .....
6 .....
7 .....
8 .....
9 .....
0 .....

Turn = 5.
  01234
0 r..r.
1 h..r.
2 ....r
3 .....
4 .....
5 .....
6 .....
7 .....
8 .....
9 .....
0 .....

*** Darwin 12x18 ***
Turn = 0.
  012345678901234567
0 ..................
1 ..................
2 ..................
3 ...fr.............
4 ..................
5 ..................
6 ..................
7 ..................
8 ..................
9 ..................
0 ..................
1 ..................

Turn = 1.
  012345678901234567
0 ..................
1 ..................
2 ..................
3 ...f..............
4 ....r.............
5 ..................
6 ..................
7 ..................
8 ..................
9 ..................
0 ..................
1 ..................

Turn = 2.
  012345678901234567
0 ..................
1 ..................
2 ..................
3 ...f..............
4 ..................
5 ....r.............
6 ..................
7 ..................
8 ..................
9 ..................
0 ..................
1 ..................

Turn = 3.
  012345678901234567
0 ..................
1 ..................
2 ..................
3 ...f..............
4 ..................
5 ..................
6 ....r.............
7 ..................
8 ..................
9 ..................
0 ..................
1 ..................

Turn = 4.
  012345678901234567
0 ..................
1 ..................
2 ..................
3 ...f..............
4 ..................
5 ..................
6 ..................
7 ....r.............
8 ..................
9 ..................
0 ..................
1 ..................

Turn = 5.
  012345678901234567
0 ..................
1 ..................
2 ..................
3 ...f..............
4 ..................
5 ..................
6 ..................
7 ..................
8 ....r.............
9 ..................
0 ..................
1 ..................

Turn = 6.
  012345678901234567
0 ..................
1 ..................
2 ..................
3 ...f..............
4 ..................
5 ..................
6 ..................
7 ..................
8 ..................
9 ....r.............
0 ..................
1 ..................

Turn = 7.
  012345678901234567
0 ..................
1 ..................
2 ..................
3 ...f..............
4 ..................
5 ..................
6 ..................
7 ..................
8 ..................
9 ..................
0 ....r.............
1 ..................

Turn = 8.
  012345678901234567
0 ..................
1 ..................
2 ..................
3 ...f..............
4 ..................
5 ..................
6 ..................
7 ..................
8 ..................
9 ..................
0 ..................
1 ....r.............

Turn = 9.
  012345678901234567
0 ..................
1 ..................
2 ..................
3 ...f..............
4 ..................
5 ..................
6 ..................
7 ..................
8 ..................
9 ..................
0 ..................
1 ....r.............

Turn = 10.
  012345678901234567
0 ..................
1 ..................
2 ..................
3 ...f..............
4 ..................
5 ..................
6 ..................
7 ..................
8 ..................
9 ..................
0 ..................
1 ...r..............

Turn = 11.
  012345678901234567
0 ..................
1 ..................
2 ..................
3 ...f..............
4 ..................
5 ..................
6 ..................
7 ..................
8 ..................
9 ..................
0 ..................
1 ..r...............

Turn = 12.
  012345678901234567
0 ..................
1 ..................
2 ..................
3 ...f..............
4 ..................
5 ..................
6 ..................
7 ..................
8 ..................
9 ..................
0 ..................
1 .r................

Turn = 13.
  012345678901234567
0 ..................
1 ..................
2 ..................
3 ...f..............
4 ..................
5 ..................
6 ..................
7 ..................
8 ..................
9 ..................
0 ..................
1 r.................

Turn = 14.
  012345678901234567
0 ..................
1 ..................
2 ..................
3 ...f..............
4 ..................
5 ..................
6 ..................
7 ..................
8 ..................
9 ..................
0 ..................
1 r.................

Turn = 15.
  012345678901234567
0 ..................
1 ..................
2 ..................
3 ...f..............
4 ..................
5 ..................
6 ..................
7 ..................
8 ..................
9 ..................
0 ..................
1 r.................

Turn = 16.
  012345678901234567
0 ..................
1 ..................
2 ..................
3 ...f..............
4 ..................
5 ..................
6 ..................
7 ..................
8 ..................
9 ..................
0 ..................
1 r.................

Turn = 17.
  012345678901234567
0 ..................
1 ..................
2 ..................
3 ...f..............
4 ..................
5 ..................
6 ..................
7 ..................
8 ..................
9 ..................
0 r.................
1 ..................

*** Darwin 11x19 ***
Turn = 0.
  0123456789012345678
0 ...................
1 ...................
2 ...................
3 .................r.
4 ...................
5 ...................
6 ..t................
7 ...................
8 ...................
9 ...................
0 ...................

Turn = 1.
  0123456789012345678
0 ...................
1 ...................
2 ...................
3 ...................
4 .................r.
5 ...................
6 ..t................
7 ...................
8 ...................
9 ...................
0 ...................

Turn = 2.
  0123456789012345678
0 ...................
1 ...................
2 ...................
3 ...................
4 ...................
5 .................r.
6 ..t................
7 ...................
8 ...................
9 ...................
0 ...................

Turn = 3.
  0123456789012345678
0 ...................
1 ...................
2 ...................
3 ...................
4 ...................
5 ...................
6 ..t..............r.
7 ...................
8 ...................
9 ...................
0 ...................

Turn = 4.
  0123456789012345678
0 ...................
1 ...................
2 ...................
3 ...................
4 ...................
5 ...................
6 ..t................
7 .................r.
8 ...................
9 ...................
0 ...................

Turn = 5.
  0123456789012345678
0 ...................
1 ...................
2 ...................
3 ...................
4 ...................
5 ...................
6 ..t................
7 ...................
8 .................r.
9 ...................
0 ...................

Turn = 6.
  0123456789012345678
0 ...................
1 ...................
2 ...................
3 ...................
4 ...................
5 ...................
6 ..t................
7 ...................
8 ...................
9 .................r.
0 ...................

Turn = 7.
  0123456789012345678
0 ...................
1 ...................
2 ...................
3 ...................
4 ...................
5 ...................
6 ..t................
7 ...................
8 ...................
9 ...................
0 .................r.

Turn = 8.
  0123456789012345678
0 ...................
1 ...................
2 ...................
3 ...................
4 ...................
5 ...................
6 ..t................
7 ...................
8 ...................
9 ...................
0 .................r.

*** Darwin 10x11 ***
Turn = 0.
  01234567890
0 ...........
1 .......f...
2 ...f.......
3 ...h.......
4 ...........
5 ...........
6 f..........
7 ...r...t...
8 .f......f.r
9 ...........

Turn = 1.
  01234567890
0 ...........
1 .......f...
2 ...f.......
3 ...h.......
4 ...........
5 ...........
6 f..r.......
7 .......t..r
8 .f......f..
9 ...........

Turn = 2.
  01234567890
0 ...........
1 .......f...
2 ...f.......
3 ...h.......
4 ...........
5 ...r.......
6 f.........r
7 .......t...
8 .f......f..
9 ...........

Turn = 3.
  01234567890
0 ...........
1 .......f...
2 ...f.......
3 ...h.......
4 ...r.......
5 ..........r
6 f..........
7 .......t...
8 .f......f..
9 ...........

Turn = 4.
  01234567890
0 ...........
1 .......f...
2 ...f.......
3 ...r.......
4 ...r......r
5 ...........
6 f..........
7 .......t...
8 .f......f..
9 ...........

Turn = 5.
  01234567890
0 ...........
1 .......f...
2 ...r.......
3 ...r......r
4 ...r.......
5 ...........
6 f..........
7 .......t...
8 .f......f..
9 ...........

Turn = 6.
  01234567890
0 ...........
1 .......f...
2 ..rr......r
3 ...........
4 ....r......
5 ...........
6 f..........
7 .......t...
8 .f......f..
9 ...........

Turn = 7.
  01234567890
0 ...........
1 ...r...f..r
2 .r.........
3 ...........
4 .....r.....
5 ...........
6 f..........
7 .......t...
8 .f......f..
9 ...........

Turn = 8.
  01234567890
0 ...r......r
1 .......f...
2 r..........
3 ...........
4 ......r....
5 ...........
6 f..........
7 .......t...
8 .f......f..
9 ...........

Turn = 9.
  01234567890
0 ...r......r
1 .......f...
2 r..........
3 ...........
4 .......r...
5 ...........
6 f..........
7 .......t...
8 .f......f..
9 ...........

Turn = 10.
  01234567890
0 ..r.......r
1 r......f...
2 ...........
3 ...........
4 ........r..
5 ...........
6 f..........
7 .......t...
8 .f......f..
9 ...........

Turn = 11.
  01234567890
0 rr.........
1 .......f..r
2 ...........
3 ...........
4 .........r.
5 ...........
6 f..........
7 .......t...
8 .f......f..
9 ...........

Turn = 12.
  01234567890
0 rr.........
1 .......f...
2 ..........r
3 ...........
4 ..........r
5 ...........
6 f..........
7 .......t...
8 .f......f..
9 ...........

Turn = 13.
  01234567890
0 r..........
1 .r.....f...
2 ...........
3 ..........r
4 ..........r
5 ...........
6 f..........
7 .......t...
8 .f......f..
9 ...........

Turn = 14.
  01234567890
0 r..........
1 .......f...
2 .r.........
3 ..........r
4 ...........
5 ..........r
6 f..........
7 .......t...
8 .f......f..
9 ...........

Turn = 15.
  01234567890
0 .r.........
1 .......f...
2 ...........
3 .r........r
4 ...........
5 ...........
6 f.........r
7 .......t...
8 .f......f..
9 ...........

*** Darwin 10x10 ***
Turn = 0.
  0123456789
0 ..........
1 ..........
2 .....f....
3 .f...hr...
4 ..........
5 ..........
6 ..........
7 ..........
8 ..........
9 ..........

Turn = 1.
  0123456789
0 ..........
1 ..........
2 .....fr...
3 .f..h.....
4 ..........
5 ..........
6 ..........
7 ..........
8 ..........
9 ..........

Turn = 2.
  0123456789
0 ..........
1 ......r...
2 .....f....
3 .f.h......
4 ..........
5 ..........
6 ..........
7 ..........
8 ..........
9 ..........

*** Darwin 19x14 ***
Turn = 0.
  01234567890123
0 .t............
1 ..........h...
2 ..............
3 ..............
4 ...h..........
5 ..............
6 ..............
7 ..............
8 ..............
9 ..............
0 ..............
1 ..............
2 ..............
3 ..............
4 ..............
5 ..............
6 ........t.....
7 ..............
8 ..............

Turn = 1.
  01234567890123
0 .t............
1 ...........h..
2 ..............
3 ..............
4 ....h.........
5 ..............
6 ..............
7 ..............
8 ..............
9 ..............
0 ..............
1 ..............
2 ..............
3 ..............
4 ..............
5 ..............
6 ........t.....
7 ..............
8 ..............

Turn = 2.
  01234567890123
0 .t............
1 ............h.
2 ..............
3 ..............
4 .....h........
5 ..............
6 ..............
7 ..............
8 ..............
9 ..............
0 ..............
1 ..............
2 ..............
3 ..............
4 ..............
5 ..............
6 ........t.....
7 ..............
8 ..............

Turn = 3.
  01234567890123
0 .t............
1 .............h
2 ..............
3 ..............
4 ......h.......
5 ..............
6 ..............
7 ..............
8 ..............
9 ..............
0 ..............
1 ..............
2 ..............
3 ..............
4 ..............
5 ..............
6 ........t.....
7 ..............
8 ..............

Turn = 4.
  01234567890123
0 .t............
1 .............h
2 ..............
3 ..............
4 .......h......
5 ..............
6 ..............
7 ..............
8 ..............
9 ..............
0 ..............
1 ..............
2 ..............
3 ..............
4 ..............
5 ..............
6 ........t.....
7 ..............
8 ..............

Turn = 5.
  01234567890123
0 .t............
1 .............h
2 ..............
3 ..............
4 ........h.....
5 ..............
6 ..............
7 ..............
8 ..............
9 ..............
0 ..............
1 ..............
2 ..............
3 ..............
4 ..............
5 ..............
6 ........t.....
7 ..............
8 ..............

Turn = 6.
  01234567890123
0 .t............
1 .............h
2 ..............
3 ..............
4 .........h....
5 ..............
6 ..............
7 ..............
8 ..............
9 ..............
0 ..............
1 ..............
2 ..............
3 ..............
4 ..............
5 ..............
6 ........t.....
7 ..............
8 ..............

Turn = 7.
  01234567890123
0 .t............
1 .............h
2 ..............
3 ..............
4 ..........h...
5 ..............
6 ..............
7 ..............
8 ..............
9 ..............
0 ..............
1 ..............
2 ..............
3 ..............
4 ..............
5 ..............
6 ........t.....
7 ..............
8 ..............

Turn = 8.
  01234567890123
0 .t............
1 .............h
2 ..............
3 ..............
4 ...........h..
5 ..............
6 ..............
7 ..............
8 ..............
9 ..............
0 ..............
1 ..............
2 ..............
3 ..............
4 ..............
5 ..............
6 ........t.....
7 ..............
8 ..............

Turn = 9.
  01234567890123
0 .t............
1 .............h
2 ..............
3 ..............
4 ............h.
5 ..............
6 ..............
7 ..............
8 ..............
9 ..............
0 ..............
1 ..............
2 ..............
3 ..............
4 ..............
5 ..............
6 ........t.....
7 ..............
8 ..............

Turn = 10.
  01234567890123
0 .t............
1 .............h
2 ..............
3 ..............
4 .............h
5 ..............
6 ..............
7 ..............
8 ..............
9 ..............
0 ..............
1 ..............
2 ..............
3 ..............
4 ..............
5 ..............
6 ........t.....
7 ..............
8 ..............

Turn = 11.
  01234567890123
0 .t............
1 .............h
2 ..............
3 ..............
4 .............h
5 ..............
6 ..............
7 ..............
8 ..............
9 ..............
0 ..............
1 ..............
2 ..............
3 ..............
4 ..............
5 ..............
6 ........t.....
7 ..............
8 ..............

Turn = 12.
  01234567890123
0 .t............
1 .............h
2 ..............
3 ..............
4 .............h
5 ..............
6 ..............
7 ..............
8 ..............
9 ..............
0 ..............
1 ..............
2 ..............
3 ..............
4 ..............
5 ..............
6 ........t.....
7 ..............
8 ..............

Turn = 13.
  01234567890123
0 .t............
1 .............h
2 ..............
3 ..............
4 .............h
5 ..............
6 ..............
7 ..............
8 ..............
9 ..............
0 ..............
1 ..............
2 ..............
3 ..............
4 ..............
5 ..............
6 ........t.....
7 ..............
8 ..............

Turn = 14.
  01234567890123
0 .t............
1 .............h
2 ..............
3 ..............
4 .............h
5 ..............
6 ..............
7 ..............
8 ..............
9 ..............
0 ..............
1 ..............
2 ..............
3 ..............
4 ..............
5 ..............
6 ........t.....
7 ..............
8 ..............

Turn = 15.
  01234567890123
0 .t............
1 .............h
2 ..............
3 ..............
4 .............h
5 ..............
6 ..............
7 ..............
8 ..............
9 ..............
0 ..............
1 ..............
2 ..............
3 ..............
4 ..............
5 ..............
6 ........t.....
7 ..............
8 ..............

Turn = 16.
  01234567890123
0 .t............
1 .............h
2 ..............
3 ..............
4 .............h
5 ..............
6 ..............
7 ..............
8 ..............
9 ..............
0 ..............
1 ..............
2 ..............
3 ..............
4 ..............
5 ..............
6 ........t.....
7 ..............
8 ..............

Turn = 17.
  01234567890123
0 .t............
1 .............h
2 ..............
3 ..............
4 .............h
5 ..............
6 ..............
7 ..............
8 ..............
9 ..............
0 ..............
1 ..............
2 ..............
3 ..............
4 ..............
5 ..............
6 ........t.....
7 ..............
8 ..............

Turn = 18.
  01234567890123
0 .t............
1 .............h
2 ..............
3 ..............
4 .............h
5 ..............
6 ..............
7 ..............
8 ..............
9 ..............
0 ..............
1 ..............
2 ..............
3 ..............
4 ..............
5 ..............
6 ........t.....
7 ..............
8 ..............

*** Darwin 6x10 ***
Turn = 0.
  0123456789
0 ..........
1 ..........
2 f.........
3 ..........
4 ..........
5 ........rr

Turn = 1.
  0123456789
0 ..........
1 ..........
2 f.........
3 ..........
4 .........r
5 .......r..

Turn = 2.
  0123456789
0 ..........
1 ..........
2 f.........
3 .........r
4 ..........
5 ......r...

*** Darwin 16x14 ***
Turn = 0.
  01234567890123
0 ..............
1 ..............
2 .....r..t.....
3 ....h....t....
4 ..............
5 ..............
6 ..............
7 ..............
8 ..............
9 ..............
0 ..........t...
1 ........f.h...
2 ..............
3 ..............
4 ........h.....
5 ..............

Turn = 1.
  01234567890123
0 ..............
1 .....r........
2 ........t.....
3 .....h...t....
4 ..............
5 ..............
6 ..............
7 ..............
8 ..............
9 ..............
0 ..........t...
1 ........f.....
2 ..........h...
3 ........h.....
4 ..............
5 ..............

Turn = 2.
  01234567890123
0 .....r........
1 ..............
2 ........t.....
3 ......h..t....
4 ..............
5 ..............
6 ..............
7 ..............
8 ..............
9 ..............
0 ..........t...
1 ........f.....
2 ........h.....
3 ..........h...
4 ..............
5 ..............

Turn = 3.
  01234567890123
0 .....r........
1 ..............
2 ........t.....
3 .......h.t....
4 ..............
5 ..............
6 ..............
7 ..............
8 ..............
9 ..............
0 ..........t...
1 ........f.....
2 ........h.....
3 ..............
4 ..........h...
5 ..............

Turn = 4.
  01234567890123
0 ......r.......
1 ..............
2 ........t.....
3 ........tt....
4 ..............
5 ..............
6 ..............
7 ..............
8 ..............
9 ..............
0 ..........t...
1 ........f.....
2 ........h.....
3 ..............
4 ..............
5 ..........h...

Turn = 5.
  01234567890123
0 .......r......
1 ..............
2 ........t.....
3 ........tt....
4 ..............
5 ..............
6 ..............
7 ..............
8 ..............
9 ..............
0 ..........t...
1 ........f.....
2 ........h.....
3 ..............
4 ..............
5 ..........h...

Turn = 6.
  01234567890123
0 ........r.....
1 ..............
2 ........t.....
3 ........tt....
4 ..............
5 ..............
6 ..............
7 ..............
8 ..............
9 ..............
0 ..........t...
1 ........f.....
2 ........h.....
3 ..............
4 ..............
5 ..........h...

Turn = 7.
  01234567890123
0 .........r....
1 ..............
2 ........t.....
3 ........tt....
4 ..............
5 ..............
6 ..............
7 ..............
8 ..............
9 ..............
0 ..........t...
1 ........f.....
2 ........h.....
3 ..............
4 ..............
5 ..........h...

Turn = 8.
  01234567890123
0 ..........r...
1 ..............
2 ........t.....
3 ........tt....
4 ..............
5 ..............
6 ..............
7 ..............
8 ..............
9 ..............
0 ..........t...
1 ........f.....
2 ........h.....
3 ..............
4 ..............
5 ..........h...

Turn = 9.
  01234567890123
0 ...........r..
1 ..............
2 ........t.....
3 ........tt....
4 ..............
5 ..............
6 ..............
7 ..............
8 ..............
9 ..............
0 ..........t...
1 ........f.....
2 ........h.....
3 ..............
4 ..............
5 ..........h...

Turn = 10.
  01234567890123
0 ............r.
1 ..............
2 ........t.....
3 ........tt....
4 ..............
5 ..............
6 ..............
7 ..............
8 ..............
9 ..............
0 ..........t...
1 ........f.....
2 ........h.....
3 ..............
4 ..............
5 ..........h...

Turn = 11.
  01234567890123
0 .............r
1 ..............
2 ........t.....
3 ........tt....
4 ..............
5 ..............
6 ..............
7 ..............
8 ..............
9 ..............
0 ..........t...
1 ........f.....
2 ........h.....
3 ..............
4 ..............
5 ..........h...

Turn = 12.
  01234567890123
0 .............r
1 ..............
2 ........t.....
3 ........tt....
4 ..............
5 ..............
6 ..............
7 ..............
8 ..............
9 ..............
0 ..........t...
1 ........f.....
2 ........h.....
3 ..............
4 ..............
5 ..........h...

Turn = 13.
  01234567890123
0 .............r
1 ..............
2 ........t.....
3 ........tt....
4 ..............
5 ..............
6 ..............
7 ..............
8 ..............
9 ..............
0 ..........t...
1 ........f.....
2 ........h.....
3 ..............
4 ..............
5 ..........h...

Turn = 14.
  01234567890123
0 .............r
1 ..............
2 ........t.....
3 ........tt....
4 ..............
5 ..............
6 ..............
7 ..............
8 ..............
9 ..............
0 ..........t...
1 ........f.....
2 ........h.....
3 ..............
4 ..............
5 ..........h...

Turn = 15.
  01234567890123
0 ..............
1 .............r
2 ........t.....
3 ........tt....
4 ..............
5 ..............
6 ..............
7 ..............
8 ..............
9 ..............
0 ..........t...
1 ........f.....
2 ........h.....
3 ..............
4 ..............
5 ..........h...

Turn = 16.
  01234567890123
0 ..............
1 ..............
2 ........t....r
3 ........tt....
4 ..............
5 ..............
6 ..............
7 ..............
8 ..............
9 ..............
0 ..........t...
1 ........f.....
2 ........h.....
3 ..............
4 ..............
5 ..........h...

Turn = 17.
  01234567890123
0 ..............
1 ..............
2 ........t.....
3 ........tt...r
4 ..............
5 ..............
6 ..............
7 ..............
8 ..............
9 ..............
0 ..........t...
1 ........f.....
2 ........h.....
3 ..............
4 ..............
5 ..........h...

Turn = 18.
  01234567890123
0 ..............
1 ..............
2 ........t.....
3 ........tt....
4 .............r
5 ..............
6 ..............
7 ..............
8 ..............
9 ..............
0 ..........t...
1 ........f.....
2 ........h.....
3 ..............
4 ..............
5 ..........h...

Turn = 19.
  01234567890123
0 ..............
1 ..............
2 ........t.....
3 ........tt....
4 ..............
5 .............r
6 ..............
7 ..............
8 ..............
9 ..............
0 ..........t...
1 ........f.....
2 ........h.....
3 ..............
4 ..............
5 ..........h...

Turn = 20.
  01234567890123
0 ..............
1 ..............
2 ........t.....
3 ........tt....
4 ..............
5 ..............
6 .............r
7 ..............
8 ..............
9 ..............
0 ..........t...
1 ........f.....
2 ........h.....
3 ..............
4 ..............
5 ..........h...

*** Darwin 18x10 ***
Turn = 0.
  0123456789
0 ..........
1 h.........
2 ..........
3 ..........
4 ....h.....
5 ..........
6 .........r
7 .f........
8 .......h..
9 .........t
0 .........f
1 ...h......
2 ..........
3 ......r...
4 .....r....
5 ..........
6 ...h......
7 ..........

Turn = 1.
  0123456789
0 ..........
1 h.........
2 ..........
3 ..........
4 ...h......
5 .........r
6 ..........
7 .f........
8 ..........
9 .......h.t
0 .........f
1 ..........
2 ...h......
3 .....r....
4 ....r.....
5 ..........
6 ..h.......
7 ..........

Turn = 2.
  0123456789
0 ..........
1 h.........
2 ..........
3 ..........
4 ..h......r
5 ..........
6 ..........
7 .f........
8 ..........
9 .........t
0 .......h.f
1 ..........
2 ..........
3 ...hr.....
4 ...r......
5 ..........
6 .h........
7 ..........

Turn = 3.
  0123456789
0 ..........
1 h.........
2 ..........
3 .........r
4 .h........
5 ..........
6 ..........
7 .f........
8 ..........
9 .........t
0 .........f
1 .......h..
2 ..........
3 ...rr.....
4 ..r.......
5 ..........
6 h.........
7 ..........

Turn = 4.
  0123456789
0 ..........
1 h.........
2 .........r
3 ..........
4 h.........
5 ..........
6 ..........
7 .f........
8 ..........
9 .........t
0 .........t
1 ..........
2 .......h..
3 ...r......
4 .r.r......
5 ..........
6 h.........
7 ..........

Turn = 5.
  0123456789
0 ..........
1 h........r
2 ..........
3 ..........
4 h.........
5 ..........
6 ..........
7 .f........
8 ..........
9 .........t
0 .........t
1 ..........
2 ..........
3 ..r....h..
4 r.........
5 ...r......
6 h.........
7 ..........

Turn = 6.
  0123456789
0 .........r
1 h.........
2 ..........
3 ..........
4 h.........
5 ..........
6 ..........
7 .f........
8 ..........
9 .........t
0 .........t
1 ..........
2 ..........
3 .r........
4 r......h..
5 ..........
6 h..r......
7 ..........

Turn = 7.
  0123456789
0 .........r
1 h.........
2 ..........
3 ..........
4 h.........
5 ..........
6 ..........
7 .f........
8 ..........
9 .........t
0 .........t
1 ..........
2 ..........
3 r.........
4 r.........
5 .......h..
6 h.........
7 ...r......

Turn = 8.
  0123456789
0 ........r.
1 h.........
2 ..........
3 ..........
4 h.........
5 ..........
6 ..........
7 .f........
8 ..........
9 .........t
0 .........t
1 ..........
2 ..........
3 r.........
4 .r........
5 ..........
6 h......h..
7 ...r......

Turn = 9.
  0123456789
0 .......r..
1 h.........
2 ..........
3 ..........
4 h.........
5 ..........
6 ..........
7 .f........
8 ..........
9 .........t
0 .........t
1 ..........
2 r.........
3 ..........
4 ..r.......
5 ..........
6 h.........
7 ..r....h..

Turn = 10.
  0123456789
0 ......r...
1 h.........
2 ..........
3 ..........
4 h.........
5 ..........
6 ..........
7 .f........
8 ..........
9 .........t
0 .........t
1 r.........
2 ..........
3 ..........
4 ...r......
5 ..........
6 h.........
7 .r.....h..

Turn = 11.
  0123456789
0 .....r....
1 h.........
2 ..........
3 ..........
4 h.........
5 ..........
6 ..........
7 .f........
8 ..........
9 .........t
0 r........t
1 ..........
2 ..........
3 ..........
4 ....r.....
5 ..........
6 h.........
7 r......h..

Turn = 12.
  0123456789
0 ....r.....
1 h.........
2 ..........
3 ..........
4 h.........
5 ..........
6 ..........
7 .f........
8 ..........
9 r........t
0 .........t
1 ..........
2 ..........
3 ..........
4 .....r....
5 ..........
6 h.........
7 r......h..

Turn = 13.
  0123456789
0 ...r......
1 h.........
2 ..........
3 ..........
4 h.........
5 ..........
6 ..........
7 .f........
8 r.........
9 .........t
0 .........t
1 ..........
2 ..........
3 ..........
4 ......r...
5 ..........
6 r.........
7 r......h..

Turn = 14.
  0123456789
0 ..r.......
1 h.........
2 ..........
3 ..........
4 h.........
5 ..........
6 ..........
7 rf........
8 ..........
9 .........t
0 .........t
1 ..........
2 ..........
3 ..........
4 .......r..
5 ..........
6 r.........
7 r......h..

Turn = 15.
  0123456789
0 .r........
1 h.........
2 ..........
3 ..........
4 h.........
5 ..........
6 r.........
7 .f........
8 ..........
9 .........t
0 .........t
1 ..........
2 ..........
3 ..........
4 ........r.
5 ..........
6 r.........
7 r......h..

Turn = 16.
  0123456789
0 r.........
1 h.........
2 ..........
3 ..........
4 h.........
5 r.........
6 ..........
7 .f........
8 ..........
9 .........t
0 .........t
1 ..........
2 ..........
3 ..........
4 .........r
5 ..........
6 r.........
7 r......h..

Turn = 17.
  0123456789
0 r.........
1 h.........
2 ..........
3 ..........
4 r.........
5 r.........
6 ..........
7 .f........
8 ..........
9 .........t
0 .........t
1 ..........
2 ..........
3 ..........
4 .........r
5 ..........
6 r.........
7 .r.....h..

Turn = 18.
  0123456789
0 r.........
1 r.........
2 ..........
3 ..........
4 r.........
5 r.........
6 ..........
7 .f........
8 ..........
9 .........t
0 .........t
1 ..........
2 ..........
3 ..........
4 ..........
5 .........r
6 r.........
7 ..r....h..

Turn = 19.
  0123456789
0 r.........
1 ..........
2 r.........
3 ..........
4 r.........
5 r.........
6 ..........
7 .f........
8 ..........
9 .........t
0 .........t
1 ..........
2 ..........
3 ..........
4 ..........
5 ..........
6 .........r
7 r..r...h..

Turn = 20.
  0123456789
0 .r........
1 ..........
2 ..........
3 r.........
4 r.........
5 ..........
6 r.........
7 .f........
8 ..........
9 .........t
0 .........t
1 ..........
2 ..........
3 ..........
4 ..........
5 ..........
6 ..........
7 r...r..h.r

Turn = 21.
  0123456789
0 ..r.......
1 ..........
2 ..........
3 r.........
4 r.........
5 ..........
6 ..........
7 rf........
8 ..........
9 .........t
0 .........t
1 ..........
2 ..........
3 ..........
4 ..........
5 ..........
6 ..........
7 r....r.h.r

Turn = 22.
  0123456789
0 ...r......
1 ..........
2 ..........
3 .r........
4 r.........
5 ..........
6 ..........
7 .f........
8 r.........
9 .........t
0 .........t
1 ..........
2 ..........
3 ..........
4 ..........
5 ..........
6 ..........
7 r.....rhr.

Turn = 23.
  0123456789
0 ....r.....
1 ..........
2 ..........
3 r.r.......
4 ..........
5 ..........
6 ..........
7 .f........
8 ..........
9 r........t
0 .........t
1 ..........
2 ..........
3 ..........
4 ..........
5 ..........
6 ..........
7 r.....rrr.

Turn = 24.
  0123456789
0 .....r....
1 ..........
2 r.........
3 ...r......
4 ..........
5 ..........
6 ..........
7 .f........
8 ..........
9 .........t
0 r........t
1 ..........
2 ..........
3 ..........
4 ..........
5 ..........
6 r.........
7 ......rrr.

*** Darwin 20x11 ***
Turn = 0.
  01234567890
0 ..h.....f..
1 ...........
2 ...........
3 ...........
4 ...........
5 t..........
6 ..t........
7 ...........
8 ...........
9 ...........
0 ......h....
1 ...........
2 ...........
3 ...........
4 ...........
5 .t.........
6 ...........
7 ...........
8 ...........
9 ...........

Turn = 1.
  01234567890
0 ........f..
1 ..h........
2 ...........
3 ...........
4 ...........
5 t..........
6 ..t........
7 ...........
8 ...........
9 ...........
0 ...........
1 ......h....
2 ...........
3 ...........
4 ...........
5 .t.........
6 ...........
7 ...........
8 ...........
9 ...........

Turn = 2.
  01234567890
0 ........f..
1 ...........
2 ..h........
3 ...........
4 ...........
5 t..........
6 ..t........
7 ...........
8 ...........
9 ...........
0 ...........
1 ...........
2 ......h....
3 ...........
4 ...........
5 .t.........
6 ...........
7 ...........
8 ...........
9 ...........

Turn = 3.
  01234567890
0 ........f..
1 ...........
2 ...........
3 ..h........
4 ...........
5 t..........
6 ..t........
7 ...........
8 ...........
9 ...........
0 ...........
1 ...........
2 ...........
3 ......h....
4 ...........
5 .t.........
6 ...........
7 ...........
8 ...........
9 ...........

Turn = 4.
  01234567890
0 ........f..
1 ...........
2 ...........
3 ...........
4 ..h........
5 t..........
6 ..t........
7 ...........
8 ...........
9 ...........
0 ...........
1 ...........
2 ...........
3 ...........
4 ......h....
5 .t.........
6 ...........
7 ...........
8 ...........
9 ...........

Turn = 5.
  01234567890
0 ........f..
1 ...........
2 ...........
3 ...........
4 ...........
5 t.h........
6 ..t........
7 ...........
8 ...........
9 ...........
0 ...........
1 ...........
2 ...........
3 ...........
4 ...........
5 .t....h....
6 ...........
7 ...........
8 ...........
9 ...........

Turn = 6.
  01234567890
0 ........f..
1 ...........
2 ...........
3 ...........
4 ...........
5 t.h........
6 ..t........
7 ...........
8 ...........
9 ...........
0 ...........
1 ...........
2 ...........
3 ...........
4 ...........
5 .t.........
6 ......h....
7 ...........
8 ...........
9 ...........

Turn = 7.
  01234567890
0 ........f..
1 ...........
2 ...........
3 ...........
4 ...........
5 t.h........
6 ..t........
7 ...........
8 ...........
9 ...........
0 ...........
1 ...........
2 ...........
3 ...........
4 ...........
5 .t.........
6 ...........
7 ......h....
8 ...........
9 ...........

Turn = 8.
  01234567890
0 ........f..
1 ...........
2 ...........
3 ...........
4 ...........
5 t.t........
6 ..t........
7 ...........
8 ...........
9 ...........
0 ...........
1 ...........
2 ...........
3 ...........
4 ...........
5 .t.........
6 ...........
7 ...........
8 ......h....
9 ...........

Turn = 9.
  01234567890
0 ........f..
1 ...........
2 ...........
3 ...........
4 ...........
5 t.t........
6 ..t........
7 ...........
8 ...........
9 ...........
0 ...........
1 ...........
2 ...........
3 ...........
4 ...........
5 .t.........
6 ...........
7 ...........
8 ...........
9 ......h....

Turn = 10.
  01234567890
0 ........f..
1 ...........
2 ...........
3 ...........
4 ...........
5 t.t........
6 ..t........
7 ...........
8 ...........
9 ...........
0 ...........
1 ...........
2 ...........
3 ...........
4 ...........
5 .t.........
6 ...........
7 ...........
8 ...........
9 ......h....

Turn = 11.
  01234567890
0 ........f..
1 ...........
2 ...........
3 ...........
4 ...........
5 t.t........
6 ..t........
7 ...........
8 ...........
9 ...........
0 ...........
1 ...........
2 ...........
3 ...........
4 ...........
5 .t.........
6 ...........
7 ...........
8 ...........
9 ......h....

Turn = 12.
  01234567890
0 ........f..
1 ...........
2 ...........
3 ...........
4 ...........
5 t.t........
6 ..t........
7 ...........
8 ...........
9 ...........
0 ...........
1 ...........
2 ...........
3 ...........
4 ...........
5 .t.........
6 ...........
7 ...........
8 ...........
9 ......h....

Turn = 13.
  01234567890
0 ........f..
1 ...........
2 ...........
3 ...........
4 ...........
5 t.t........
6 ..t........
7 ...........
8 ...........
9 ...........
0 ...........
1 ...........
2 ...........
3 ...........
4 ...........
5 .t.........
6 ...........
7 ...........
8 ...........
9 ......h....

Turn = 14.
  01234567890
0 ........f..
1 ...........
2 ...........
3 ...........
4 ...........
5 t.t........
6 ..t........
7 ...........
8 ...........
9 ...........
0 ...........
1 ...........
2 ...........
3 ...........
4 ...........
5 .t.........
6 ...........
7 ...........
8 ...........
9 ......h....

Turn = 15.
  01234567890
0 ........f..
1 ...........
2 ...........
3 ...........
4 ...........
5 t.t........
6 ..t........
7 ...........
8 ...........
9 ...........
0 ...........
1 ...........
2 ...........
3 ...........
4 ...........
5 .t.........
6 ...........
7 ...........
8 ...........
9 ......h....

Turn = 16.
  01234567890
0 ........f..
1 ...........
2 ...........
3 ...........
4 ...........
5 t.t........
6 ..t........
7 ...........
8 ...........
9 ...........
0 ...........
1 ...........
2 ...........
3 ...........
4 ...........
5 .t.........
6 ...........
7 ...........
8 ...........
9 ......h....

Turn = 17.
  01234567890
0 ........f..
1 ...........
2 ...........
3 ...........
4 ...........
5 t.t........
6 ..t........
7 ...........
8 ...........
9 ...........
0 ...........
1 ...........
2 ...........
3 ...........
4 ...........
5 .t.........
6 ...........
7 ...........
8 ...........
9 ......h....

Turn = 18.
  01234567890
0 ........f..
1 ...........
2 ...........
3 ...........
4 ...........
5 t.t........
6 ..t........
7 ...........
8 ...........
9 ...........
0 ...........
1 ...........
2 ...........
3 ...........
4 ...........
5 .t.........
6 ...........
7 ...........
8 ...........
9 ......h....

Turn = 19.
  01234567890
0 ........f..
1 ...........
2 ...........
3 ...........
4 ...........
5 t.t........
6 ..t........
7 ...........
8 ...........
9 ...........
0 ...........
1 ...........
2 ...........
3 ...........
4 ...........
5 .t.........
6 ...........
7 ...........
8 ...........
9 ......h....

Turn = 20.
  01234567890
0 ........f..
1 ...........
2 ...........
3 ...........
4 ...........
5 t.t........
6 ..t........
7 ...........
8 ...........
9 ...........
0 ...........
1 ...........
2 ...........
3 ...........
4 ...........
5 .t.........
6 ...........
7 ...........
8 ...........
9 ......h....

Turn = 21.
  01234567890
0 ........f..
1 ...........
2 ...........
3 ...........
4 ...........
5 t.t........
6 ..t........
7 ...........
8 ...........
9 ...........
0 ...........
1 ...........
2 ...........
3 ...........
4 ...........
5 .t.........
6 ...........
7 ...........
8 ...........
9 ......h....

Turn = 22.
  01234567890
0 ........f..
1 ...........
2 ...........
3 ...........
4 ...........
5 t.t........
6 ..t........
7 ...........
8 ...........
9 ...........
0 ...........
1 ...........
2 ...........
3 ...........
4 ...........
5 .t.........
6 ...........
7 ...........
8 ...........
9 ......h....

Turn = 23.
  01234567890
0 ........f..
1 ...........
2 ...........
3 ...........
4 ...........
5 t.t........
6 ..t........
7 ...........
8 ...........
9 ...........
0 ...........
1 ...........
2 ...........
3 ...........
4 ...........
5 .t.........
6 ...........
7 ...........
8 ...........
9 ......h....

Turn = 24.
  01234567890
0 ........f..
1 ...........
2 ...........
3 ...........
4 ...........
5 t.t........
6 ..t........
7 ...........
8 ...........
9 ...........
0 ...........
1 ...........
2 ...........
3 ...........
4 ...........
5 .t.........
6 ...........
7 ...........
8 ...........
9 ......h....

*** Darwin 3x10 ***
Turn = 0.
  0123456789
0 ....ff....
1 .r.th.h..h
2 ..f...t.f.

Turn = 1.
  0123456789
0 ....ffh..h
1 r..t.h....
2 ..f...t.f.

Turn = 2.
  0123456789
0 ....ffh..h
1 r..t..h...
2 ..f...t.f.

Turn = 3.
  0123456789
0 r...ffh..h
1 ...t...h..
2 ..f...t.f.

Turn = 4.
  0123456789
0 r...ffh..h
1 ...t....h.
2 ..f...t.f.

Turn = 5.
  0123456789
0 r...ffh..h
1 ...t.....h
2 ..f...t.f.

Turn = 6.
  0123456789
0 r...ffh..h
1 ...t.....h
2 ..f...t.f.

Turn = 7.
  0123456789
0 .r..ffh..h
1 ...t.....h
2 ..f...t.f.

Turn = 8.
  0123456789
0 ..r.ffh..h
1 ...t.....h
2 ..f...t.f.

Turn = 9.
  0123456789
0 ...tffh..h
1 ...t.....h
2 ..f...t.f.

Turn = 10.
  0123456789
0 ...tttt..h
1 ...t.....h
2 ..f...t.f.

Turn = 11.
  0123456789
0 ...tttt..h
1 ...t.....h
2 ..f...t.f.

*** Darwin 10x18 ***
Turn = 0.
  012345678901234567
0 .t...........f....
1 ...........h.rf...
2 ..................
3 ..................
4 ..............h...
5 .......t..........
6 ..................
7 .................h
8 ...............f..
9 ..............t...

Turn = 1.
  012345678901234567
0 .t...........r....
1 .............rf...
2 ...........h......
3 ..............h...
4 ..................
5 .......t..........
6 .................h
7 ..................
8 ...............f..
9 ..............t...

Turn = 2.
  012345678901234567
0 .t...........r....
1 .............rf...
2 ..............h...
3 ...........h......
4 ..................
5 .......t.........h
6 ..................
7 ..................
8 ...............f..
9 ..............t...

Turn = 3.
  012345678901234567
0 .t............r...
1 ............r.f...
2 ..............h...
3 ..................
4 ...........h.....h
5 .......t..........
6 ..................
7 ..................
8 ...............f..
9 ..............t...

Turn = 4.
  012345678901234567
0 .t.............r..
1 ...........r..f...
2 ..............h...
3 .................h
4 ..................
5 .......t...h......
6 ..................
7 ..................
8 ...............f..
9 ..............t...

Turn = 5.
  012345678901234567
0 .t..............r.
1 ..........r...f...
2 ..............h..h
3 ..................
4 ..................
5 .......t..........
6 ...........h......
7 ..................
8 ...............f..
9 ..............t...

Turn = 6.
  012345678901234567
0 .t...............r
1 .........r....f..h
2 ..............h...
3 ..................
4 ..................
5 .......t..........
6 ..................
7 ...........h......
8 ...............f..
9 ..............t...

Turn = 7.
  012345678901234567
0 .t...............r
1 ........r.....f..h
2 ..............h...
3 ..................
4 ..................
5 .......t..........
6 ..................
7 ..................
8 ...........h...f..
9 ..............t...

Turn = 8.
  012345678901234567
0 .t...............r
1 .......r......f..r
2 ..............h...
3 ..................
4 ..................
5 .......t..........
6 ..................
7 ..................
8 ...............f..
9 ...........h..t...

Turn = 9.
  012345678901234567
0 .t...............r
1 ......r.......f..r
2 ..............h...
3 ..................
4 ..................
5 .......t..........
6 ..................
7 ..................
8 ...............f..
9 ...........h..t...

Turn = 10.
  012345678901234567
0 .t..............r.
1 .....r........f...
2 ..............h..r
3 ..................
4 ..................
5 .......t..........
6 ..................
7 ..................
8 ...............f..
9 ...........h..t...

Turn = 11.
  012345678901234567
0 .t.............r..
1 ....r.........f...
2 ..............h...
3 .................r
4 ..................
5 .......t..........
6 ..................
7 ..................
8 ...............f..
9 ...........h..t...

Turn = 12.
  012345678901234567
0 .t............r...
1 ...r..........f...
2 ..............h...
3 ..................
4 .................r
5 .......t..........
6 ..................
7 ..................
8 ...............f..
9 ...........h..t...

Turn = 13.
  012345678901234567
0 .t...........r....
1 ..r...........f...
2 ..............h...
3 ..................
4 ..................
5 .......t.........r
6 ..................
7 ..................
8 ...............f..
9 ...........h..t...

Turn = 14.
  012345678901234567
0 .t..........r.....
1 .r............f...
2 ..............h...
3 ..................
4 ..................
5 .......t..........
6 .................r
7 ..................
8 ...............f..
9 ...........h..t...

Turn = 15.
  012345678901234567
0 .t.........r......
1 r.............f...
2 ..............h...
3 ..................
4 ..................
5 .......t..........
6 ..................
7 .................r
8 ...............f..
9 ...........h..t...

Turn = 16.
  012345678901234567
0 .t........r.......
1 r.............f...
2 ..............h...
3 ..................
4 ..................
5 .......t..........
6 ..................
7 ..................
8 ...............f.r
9 ...........h..t...

Turn = 17.
  012345678901234567
0 .t.......r........
1 ..............f...
2 r.............h...
3 ..................
4 ..................
5 .......t..........
6 ..................
7 ..................
8 ...............f..
9 ...........h..t..r

Turn = 18.
  012345678901234567
0 .t......r.........
1 ..............f...
2 ..............h...
3 r.................
4 ..................
5 .......t..........
6 ..................
7 ..................
8 ...............f..
9 ...........h..t..r

Turn = 19.
  012345678901234567
0 .t.....r..........
1 ..............f...
2 ..............h...
3 ..................
4 r.................
5 .......t..........
6 ..................
7 ..................
8 ...............f..
9 ...........h..t..r

Turn = 20.
  012345678901234567
0 .t....r...........
1 ..............f...
2 ..............h...
3 ..................
4 ..................
5 r......t..........
6 ..................
7 ..................
8 ...............f..
9 ...........h..t..r

Turn = 21.
  012345678901234567
0 .t...r............
1 ..............f...
2 ..............h...
3 ..................
4 ..................
5 .......t..........
6 r.................
7 ..................
8 ...............f..
9 ...........h..t.r.

*** Darwin 16x7 ***
Turn = 0.
  0123456
0 ..r....
1 ....t..
2 r......
3 .......
4 .......
5 .....h.
6 .......
7 ...rr..
8 .......
9 .......
0 ....htf
1 .......
2 .h.....
3 .......
4 ..t....
5 .t.....

Turn = 1.
  0123456
0 .r.....
1 ....t..
2 .r.....
3 .......
4 .......
5 .......
6 .....h.
7 ..rr...
8 .......
9 .......
0 ....htf
1 .h.....
2 .......
3 .......
4 ..t....
5 .t.....

Turn = 2.
  0123456
0 r......
1 ....t..
2 ..r....
3 .......
4 .......
5 .......
6 .......
7 .rr..h.
8 .......
9 .......
0 .h..htt
1 .......
2 .......
3 .......
4 ..t....
5 .t.....

Turn = 3.
  0123456
0 r......
1 ....t..
2 ...r...
3 .......
4 .......
5 .......
6 .......
7 rr.....
8 .....h.
9 .h.....
0 ....htt
1 .......
2 .......
3 .......
4 ..t....
5 .t.....
