*** Darwin 5x5 ***
Turn = 0.
  01234
0 fffff
1 .....
2 fffff
3 .....
4 fffff

Turn = 10.
  01234
0 fffff
1 .....
2 fffff
3 .....
4 fffff

*** Darwin 5x5 ***
Turn = 0.
  01234
0 fffff
1 .....
2 rrrrr
3 .....
4 fffff

Turn = 10.
  01234
0 rrrr.
1 rrrrr
2 rrr.r
3 .....
4 ..rr.

*** Darwin 5x5 ***
Turn = 0.
  01234
0 ttttt
1 .....
2 rrrrr
3 .....
4 ttttt

Turn = 10.
  01234
0 ttttt
1 ...tt
2 .....
3 .t.tt
4 rtttt

*** Darwin 1x1 ***
Turn = 0.
  0
0 f

Turn = 1.
  0
0 f

*** Darwin 1x5 ***
Turn = 0.
  01234
0 t...r

Turn = 10.
  01234
0 rr...

*** Darwin 20x1 ***
Turn = 0.
  0
0 t
1 .
2 .
3 .
4 .
5 .
6 .
7 .
8 .
9 .
0 r
1 .
2 .
3 .
4 .
5 .
6 .
7 .
8 .
9 t

Turn = 10.
  0
0 r
1 r
2 .
3 .
4 .
5 .
6 .
7 .
8 .
9 .
0 .
1 .
2 .
3 .
4 .
5 .
6 .
7 .
8 .
9 t

*** Darwin 3x3 ***
Turn = 0.
  012
0 t.r
1 ...
2 r.t

Turn = 10.
  012
0 ...
1 r.r
2 r.r

*** Darwin 9x9 ***
Turn = 0.
  012345678
0 t.......r
1 .........
2 .........
3 .........
4 .........
5 .........
6 .........
7 .........
8 r.......t

Turn = 20.
  012345678
0 .........
1 .........
2 .........
3 ........r
4 .........
5 .........
6 ..r......
7 .r.......
8 r........

*** Darwin 2x2 ***
Turn = 0.
  01
0 t.
1 .r

Turn = 10.
  01
0 tt
1 ..

*** Darwin 4x4 ***
Turn = 0.
  0123
0 t...
1 ....
2 ....
3 ...r

Turn = 10.
  0123
0 t...
1 ....
2 ....
3 ...r
